01e7
0014
0183
0014
007f
0014
0071
0014
00f0
0014
01f5
0014
0085
0014
00f0
0014
00f7
0014
00f7
0014
00f7
0014
0176
0014
017d
0014
00fe
0014
01f5
0014
0183
0014
007f
0014
0071
0014
00f0
0014
01f5
0014
0085
0014
00f0
0014
00f7
0014
0078
0014
0071
0014
0071
0014
046a
0014
